EESchema Schematic File Version 4
LIBS:vfd1-cache
EELAYER 30 0
EELAYER END
$Descr A4 11693 8268
encoding utf-8
Sheet 1 1
Title ""
Date ""
Rev ""
Comp ""
Comment1 ""
Comment2 ""
Comment3 ""
Comment4 ""
$EndDescr
$Comp
L vfd1-rescue:ZENER D3
U 1 1 58B8A818
P 5850 1650
F 0 "D3" H 5850 1750 50  0000 C CNN
F 1 "2,7" H 5850 1550 50  0000 C CNN
F 2 "Diodes_SMD:D_MiniMELF_Standard" H 5850 1650 50  0001 C CNN
F 3 "" H 5850 1650 50  0000 C CNN
F 4 "SMD ZF 2,7" H 5850 1650 60  0001 C CNN "OrderNr"
F 5 "-" H 5850 1650 60  0001 C CNN "Distributor"
	1    5850 1650
	0    -1   1    0   
$EndComp
$Comp
L vfd1-rescue:R R6
U 1 1 58B8A865
P 5850 1200
F 0 "R6" V 5930 1200 50  0000 C CNN
F 1 "100k" V 5850 1200 50  0000 C CNN
F 2 "Resistors_SMD:R_0805" V 5780 1200 50  0001 C CNN
F 3 "" H 5850 1200 50  0000 C CNN
	1    5850 1200
	1    0    0    1   
$EndComp
$Comp
L vfd1-rescue:R R5
U 1 1 58B8A8C1
P 5650 1400
F 0 "R5" V 5730 1400 50  0000 C CNN
F 1 "1k" V 5650 1400 50  0000 C CNN
F 2 "Resistors_SMD:R_0805" V 5580 1400 50  0001 C CNN
F 3 "" H 5650 1400 50  0000 C CNN
	1    5650 1400
	0    -1   1    0   
$EndComp
$Comp
L vfd1-rescue:R R9
U 1 1 58B8A921
P 6050 1400
F 0 "R9" V 6130 1400 50  0000 C CNN
F 1 "1k" V 6050 1400 50  0000 C CNN
F 2 "Resistors_SMD:R_0805" V 5980 1400 50  0001 C CNN
F 3 "" H 6050 1400 50  0000 C CNN
	1    6050 1400
	0    -1   1    0   
$EndComp
$Comp
L vfd1-rescue:C C1
U 1 1 58B8A96F
P 5250 1400
F 0 "C1" V 5400 1350 50  0000 L CNN
F 1 "1µ/50V" V 5100 1250 50  0000 L CNN
F 2 "Resistors_SMD:R_1206" H 5288 1250 50  0001 C CNN
F 3 "" H 5250 1400 50  0000 C CNN
F 4 "2672214" H 5250 1400 60  0001 C CNN "OrderNr"
F 5 "F" H 5250 1400 60  0001 C CNN "Distributor"
	1    5250 1400
	0    -1   -1   0   
$EndComp
$Comp
L vfd1-rescue:C C2
U 1 1 58B8A9EC
P 6450 1400
F 0 "C2" V 6600 1350 50  0000 L CNN
F 1 "1µ/50V" V 6300 1250 50  0000 L CNN
F 2 "Resistors_SMD:R_1206" H 6488 1250 50  0001 C CNN
F 3 "" H 6450 1400 50  0000 C CNN
F 4 "2672214" H 6450 1400 60  0001 C CNN "OrderNr"
F 5 "F" H 6450 1400 60  0001 C CNN "Distributor"
	1    6450 1400
	0    -1   -1   0   
$EndComp
$Comp
L power:-24V #PWR014
U 1 1 58B8BA1A
P 5850 1850
F 0 "#PWR014" H 5850 1950 50  0001 C CNN
F 1 "-30V" H 5850 2000 50  0000 C CNN
F 2 "" H 5850 1850 50  0000 C CNN
F 3 "" H 5850 1850 50  0000 C CNN
F 4 "-" H 5850 1850 60  0001 C CNN "OrderNr"
F 5 "-" H 5850 1850 60  0001 C CNN "Distributor"
	1    5850 1850
	1    0    0    1   
$EndComp
Text Label 5450 1150 0    60   ~ 0
FIL2
Text Label 6250 1150 0    60   ~ 0
FIL1
Text Label 550  6600 0    60   ~ 0
seg_g
Text Label 550  6300 0    60   ~ 0
seg_b
$Comp
L vfd1-rescue:C C3
U 1 1 58BA3D33
P 6800 3350
F 0 "C3" H 6825 3450 50  0000 L CNN
F 1 "100n" H 6825 3250 50  0000 L CNN
F 2 "Capacitors_SMD:C_0805" H 6838 3200 50  0001 C CNN
F 3 "" H 6800 3350 50  0000 C CNN
	1    6800 3350
	1    0    0    -1  
$EndComp
$Comp
L vfd1-rescue:C C4
U 1 1 58BA3E37
P 7050 3350
F 0 "C4" H 7075 3450 50  0000 L CNN
F 1 "100n" H 7075 3250 50  0000 L CNN
F 2 "Capacitors_SMD:C_0805" H 7088 3200 50  0001 C CNN
F 3 "" H 7050 3350 50  0000 C CNN
	1    7050 3350
	1    0    0    -1  
$EndComp
$Comp
L power:+5V #PWR01
U 1 1 58BA3F2F
P 6800 3200
F 0 "#PWR01" H 6800 3050 50  0001 C CNN
F 1 "+5V" H 6800 3340 50  0000 C CNN
F 2 "" H 6800 3200 50  0000 C CNN
F 3 "" H 6800 3200 50  0000 C CNN
	1    6800 3200
	1    0    0    -1  
$EndComp
$Comp
L power:+5V #PWR02
U 1 1 58BA4018
P 7050 3200
F 0 "#PWR02" H 7050 3050 50  0001 C CNN
F 1 "+5V" H 7050 3340 50  0000 C CNN
F 2 "" H 7050 3200 50  0000 C CNN
F 3 "" H 7050 3200 50  0000 C CNN
	1    7050 3200
	1    0    0    -1  
$EndComp
$Comp
L power:GND #PWR03
U 1 1 58BA4101
P 6800 3500
F 0 "#PWR03" H 6800 3250 50  0001 C CNN
F 1 "GND" H 6800 3350 50  0000 C CNN
F 2 "" H 6800 3500 50  0000 C CNN
F 3 "" H 6800 3500 50  0000 C CNN
	1    6800 3500
	1    0    0    -1  
$EndComp
$Comp
L power:GND #PWR04
U 1 1 58BA41EA
P 7050 3500
F 0 "#PWR04" H 7050 3250 50  0001 C CNN
F 1 "GND" H 7050 3350 50  0000 C CNN
F 2 "" H 7050 3500 50  0000 C CNN
F 3 "" H 7050 3500 50  0000 C CNN
	1    7050 3500
	1    0    0    -1  
$EndComp
$Comp
L vfd1-rescue:CONN_02X03 P1
U 1 1 58BAC996
P 7650 5450
F 0 "P1" H 7650 5650 50  0000 C CNN
F 1 "CONN_02X03" H 7650 5250 50  0000 C CNN
F 2 "Pin_Headers:Pin_Header_Straight_2x03_Pitch1.27mm" H 7650 4250 50  0001 C CNN
F 3 "" H 7650 4250 50  0000 C CNN
F 4 "SL 2X10G 1,27" H 7650 5450 60  0001 C CNN "OrderNr"
F 5 "-" H 7650 5450 60  0001 C CNN "Distributor"
	1    7650 5450
	1    0    0    -1  
$EndComp
$Comp
L power:GND #PWR05
U 1 1 58BAD3E7
P 7900 5550
F 0 "#PWR05" H 7900 5300 50  0001 C CNN
F 1 "GND" H 7900 5400 50  0000 C CNN
F 2 "" H 7900 5550 50  0000 C CNN
F 3 "" H 7900 5550 50  0000 C CNN
	1    7900 5550
	1    0    0    -1  
$EndComp
Text Label 7150 5550 0    60   ~ 0
RESET
$Comp
L power:GND #PWR06
U 1 1 58BD817A
P 1500 3200
F 0 "#PWR06" H 1500 2950 50  0001 C CNN
F 1 "GND" V 1500 3000 50  0000 C CNN
F 2 "" H 1500 3200 50  0000 C CNN
F 3 "" H 1500 3200 50  0000 C CNN
	1    1500 3200
	1    0    0    -1  
$EndComp
$Comp
L vfd1-rescue:R R47
U 1 1 58BD87ED
P 1900 2650
F 0 "R47" V 1850 2500 50  0000 C CNN
F 1 "100" V 1900 2650 50  0000 C CNN
F 2 "Resistors_SMD:R_0805" V 1830 2650 50  0001 C CNN
F 3 "" H 1900 2650 50  0000 C CNN
	1    1900 2650
	0    1    1    0   
$EndComp
$Comp
L vfd1-rescue:C C8
U 1 1 58BD88E4
P 1700 3000
F 0 "C8" H 1725 3100 50  0000 L CNN
F 1 "100n" H 1725 2900 50  0000 L CNN
F 2 "Capacitors_SMD:C_0805" H 1738 2850 50  0001 C CNN
F 3 "" H 1700 3000 50  0000 C CNN
	1    1700 3000
	1    0    0    -1  
$EndComp
$Comp
L power:GND #PWR07
U 1 1 58BD89C7
P 1700 3200
F 0 "#PWR07" H 1700 2950 50  0001 C CNN
F 1 "GND" H 1700 3050 50  0000 C CNN
F 2 "" H 1700 3200 50  0000 C CNN
F 3 "" H 1700 3200 50  0000 C CNN
	1    1700 3200
	1    0    0    -1  
$EndComp
$Comp
L power:+5V #PWR08
U 1 1 58BD8F27
P 2150 2650
F 0 "#PWR08" H 2150 2500 50  0001 C CNN
F 1 "+5V" H 2150 2790 50  0000 C CNN
F 2 "" H 2150 2650 50  0000 C CNN
F 3 "" H 2150 2650 50  0000 C CNN
	1    2150 2650
	0    1    1    0   
$EndComp
$Comp
L mylib:IW18 U4
U 1 1 58BDD424
P 9000 2450
F 0 "U4" H 9500 2750 60  0000 C CNN
F 1 "IW18" H 9550 2900 60  0000 C CNN
F 2 "myfootprints:IW18" H 9000 2450 60  0001 C CNN
F 3 "" H 9000 2450 60  0001 C CNN
F 4 "NA" H 9000 2450 60  0001 C CNN "OrderNr"
F 5 "-" H 9000 2450 60  0001 C CNN "Distributor"
	1    9000 2450
	0    -1   -1   0   
$EndComp
$Comp
L vfd1-rescue:CONN_02X10 P3
U 1 1 58BDEFA5
P 10150 3050
F 0 "P3" H 10150 3600 50  0000 C CNN
F 1 "CONN_02X10" V 10150 3050 50  0000 C CNN
F 2 "Connector_PinSocket_1.27mm:PinSocket_2x10_P1.27mm_Vertical" H 10150 1850 50  0001 C CNN
F 3 "" H 10150 1850 50  0000 C CNN
F 4 "BL 2X10G 1,27" H 10150 3050 60  0001 C CNN "OrderNr"
F 5 "-" H 10150 3050 60  0001 C CNN "Distributor"
	1    10150 3050
	1    0    0    -1  
$EndComp
$Comp
L vfd1-rescue:CONN_02X10 P4
U 1 1 58B8547C
P 9650 5150
F 0 "P4" H 9650 5700 50  0000 C CNN
F 1 "CONN_02X10" V 9650 5150 50  0000 C CNN
F 2 "Connector_PinHeader_1.27mm:PinHeader_2x10_P1.27mm_Horizontal" H 9650 3950 50  0001 C CNN
F 3 "" H 9650 3950 50  0000 C CNN
F 4 "SL 2X10W 1,27" H 9650 5150 60  0001 C CNN "OrderNr"
F 5 "-" H 9650 5150 60  0001 C CNN "Distributor"
	1    9650 5150
	-1   0    0    -1  
$EndComp
Text Label 1550 6400 0    60   ~ 0
sb
Text Label 1500 6700 0    60   ~ 0
sg
Text Label 10000 5100 0    60   ~ 0
g5
Text Label 10000 5000 0    60   ~ 0
g3
Text Label 10000 4900 0    60   ~ 0
g1
Text Label 10000 4800 0    60   ~ 0
g9
Text Label 10050 5600 0    60   ~ 0
g2
Text Label 10050 5500 0    60   ~ 0
g4
Text Label 10050 5400 0    60   ~ 0
g6
Text Label 10050 5300 0    60   ~ 0
g7
Text Label 10000 4700 0    60   ~ 0
FIL1
Text Label 9150 5600 0    60   ~ 0
FIL2
Text Label 9100 4700 0    60   ~ 0
sa
Text Label 9100 4800 0    60   ~ 0
sf
Text Label 9100 4900 0    60   ~ 0
sb
Text Label 9100 5000 0    60   ~ 0
sg
Text Label 9100 5500 0    60   ~ 0
sdp
Text Label 9100 5400 0    60   ~ 0
sd
Text Label 9100 5300 0    60   ~ 0
sc
Text Label 9100 5200 0    60   ~ 0
se
Text Label 10000 5200 0    60   ~ 0
g8
Text Label 7900 5450 0    60   ~ 0
IR/MOSI
$Comp
L vfd1-rescue:C C10
U 1 1 58B877DC
P 7350 3350
F 0 "C10" H 7375 3450 50  0000 L CNN
F 1 "10µ" H 7375 3250 50  0000 L CNN
F 2 "Capacitors_SMD:C_1206" H 7388 3200 50  0001 C CNN
F 3 "" H 7350 3350 50  0000 C CNN
F 4 "X5R-G1206 10/35" H 7350 3350 60  0001 C CNN "OrderNr"
F 5 "-" H 7350 3350 60  0001 C CNN "Distributor"
	1    7350 3350
	1    0    0    -1  
$EndComp
$Comp
L power:GND #PWR09
U 1 1 58B87AE7
P 1200 4000
F 0 "#PWR09" H 1200 3750 50  0001 C CNN
F 1 "GND" H 1200 3850 50  0000 C CNN
F 2 "" H 1200 4000 50  0000 C CNN
F 3 "" H 1200 4000 50  0000 C CNN
	1    1200 4000
	1    0    0    -1  
$EndComp
$Comp
L power:GND #PWR010
U 1 1 58B87C0A
P 7350 3500
F 0 "#PWR010" H 7350 3250 50  0001 C CNN
F 1 "GND" H 7350 3350 50  0000 C CNN
F 2 "" H 7350 3500 50  0000 C CNN
F 3 "" H 7350 3500 50  0000 C CNN
	1    7350 3500
	1    0    0    -1  
$EndComp
$Comp
L power:+5V #PWR011
U 1 1 58B87D26
P 1200 3700
F 0 "#PWR011" H 1200 3550 50  0001 C CNN
F 1 "+5V" H 1200 3840 50  0000 C CNN
F 2 "" H 1200 3700 50  0000 C CNN
F 3 "" H 1200 3700 50  0000 C CNN
	1    1200 3700
	1    0    0    -1  
$EndComp
$Comp
L power:+5V #PWR012
U 1 1 58B87EF8
P 7350 3200
F 0 "#PWR012" H 7350 3050 50  0001 C CNN
F 1 "+5V" H 7350 3340 50  0000 C CNN
F 2 "" H 7350 3200 50  0000 C CNN
F 3 "" H 7350 3200 50  0000 C CNN
	1    7350 3200
	1    0    0    -1  
$EndComp
$Comp
L power:GND #PWR013
U 1 1 58B8D771
P 1400 4000
F 0 "#PWR013" H 1400 3750 50  0001 C CNN
F 1 "GND" H 1400 3850 50  0000 C CNN
F 2 "" H 1400 4000 50  0000 C CNN
F 3 "" H 1400 4000 50  0000 C CNN
	1    1400 4000
	-1   0    0    -1  
$EndComp
$Comp
L vfd1-rescue:R R29
U 1 1 58BEAE93
P 8500 3300
F 0 "R29" V 8550 3100 50  0000 C CNN
F 1 "56k" V 8500 3300 50  0000 C CNN
F 2 "Resistors_SMD:R_0805" V 8430 3300 50  0001 C CNN
F 3 "" H 8500 3300 50  0000 C CNN
	1    8500 3300
	-1   0    0    1   
$EndComp
$Comp
L vfd1-rescue:R R31
U 1 1 58BEBFC3
P 9000 3300
F 0 "R31" V 9050 3100 50  0000 C CNN
F 1 "56k" V 9000 3300 50  0000 C CNN
F 2 "Resistors_SMD:R_0805" V 8930 3300 50  0001 C CNN
F 3 "" H 9000 3300 50  0000 C CNN
	1    9000 3300
	-1   0    0    1   
$EndComp
$Comp
L vfd1-rescue:R R33
U 1 1 58BEC0BA
P 8600 3300
F 0 "R33" V 8650 3100 50  0000 C CNN
F 1 "56k" V 8600 3300 50  0000 C CNN
F 2 "Resistors_SMD:R_0805" V 8530 3300 50  0001 C CNN
F 3 "" H 8600 3300 50  0000 C CNN
	1    8600 3300
	-1   0    0    1   
$EndComp
$Comp
L vfd1-rescue:R R35
U 1 1 58BEC1B4
P 9100 3300
F 0 "R35" V 9150 3100 50  0000 C CNN
F 1 "56k" V 9100 3300 50  0000 C CNN
F 2 "Resistors_SMD:R_0805" V 9030 3300 50  0001 C CNN
F 3 "" H 9100 3300 50  0000 C CNN
	1    9100 3300
	-1   0    0    1   
$EndComp
$Comp
L vfd1-rescue:R R37
U 1 1 58BEC3AC
P 8900 3300
F 0 "R37" V 8950 3100 50  0000 C CNN
F 1 "56k" V 8900 3300 50  0000 C CNN
F 2 "Resistors_SMD:R_0805" V 8830 3300 50  0001 C CNN
F 3 "" H 8900 3300 50  0000 C CNN
	1    8900 3300
	-1   0    0    1   
$EndComp
$Comp
L vfd1-rescue:R R39
U 1 1 58BEC4B0
P 8700 3300
F 0 "R39" V 8750 3100 50  0000 C CNN
F 1 "56k" V 8700 3300 50  0000 C CNN
F 2 "Resistors_SMD:R_0805" V 8630 3300 50  0001 C CNN
F 3 "" H 8700 3300 50  0000 C CNN
	1    8700 3300
	-1   0    0    1   
$EndComp
$Comp
L vfd1-rescue:R R41
U 1 1 58BEC5B3
P 8800 3300
F 0 "R41" V 8850 3100 50  0000 C CNN
F 1 "56k" V 8800 3300 50  0000 C CNN
F 2 "Resistors_SMD:R_0805" V 8730 3300 50  0001 C CNN
F 3 "" H 8800 3300 50  0000 C CNN
	1    8800 3300
	-1   0    0    1   
$EndComp
$Comp
L vfd1-rescue:R R43
U 1 1 58BEC6BB
P 9200 3300
F 0 "R43" V 9250 3100 50  0000 C CNN
F 1 "56k" V 9200 3300 50  0000 C CNN
F 2 "Resistors_SMD:R_0805" V 9130 3300 50  0001 C CNN
F 3 "" H 9200 3300 50  0000 C CNN
	1    9200 3300
	-1   0    0    1   
$EndComp
$Comp
L vfd1-rescue:R R27
U 1 1 58BEC7C6
P 10300 1950
F 0 "R27" V 10250 1750 50  0000 C CNN
F 1 "56k" V 10300 1950 50  0000 C CNN
F 2 "Resistors_SMD:R_0805" V 10230 1950 50  0001 C CNN
F 3 "" H 10300 1950 50  0000 C CNN
	1    10300 1950
	0    1    1    0   
$EndComp
$Comp
L vfd1-rescue:R R25
U 1 1 58BEC91C
P 10300 1650
F 0 "R25" V 10250 1450 50  0000 C CNN
F 1 "56k" V 10300 1650 50  0000 C CNN
F 2 "Resistors_SMD:R_0805" V 10230 1650 50  0001 C CNN
F 3 "" H 10300 1650 50  0000 C CNN
	1    10300 1650
	0    1    1    0   
$EndComp
$Comp
L vfd1-rescue:R R23
U 1 1 58BECA2B
P 10300 1850
F 0 "R23" V 10250 1650 50  0000 C CNN
F 1 "56k" V 10300 1850 50  0000 C CNN
F 2 "Resistors_SMD:R_0805" V 10230 1850 50  0001 C CNN
F 3 "" H 10300 1850 50  0000 C CNN
	1    10300 1850
	0    1    1    0   
$EndComp
$Comp
L vfd1-rescue:R R21
U 1 1 58BECB3D
P 10300 1450
F 0 "R21" V 10250 1250 50  0000 C CNN
F 1 "56k" V 10300 1450 50  0000 C CNN
F 2 "Resistors_SMD:R_0805" V 10230 1450 50  0001 C CNN
F 3 "" H 10300 1450 50  0000 C CNN
	1    10300 1450
	0    1    1    0   
$EndComp
$Comp
L vfd1-rescue:R R19
U 1 1 58BECC52
P 10300 1550
F 0 "R19" V 10250 1350 50  0000 C CNN
F 1 "56k" V 10300 1550 50  0000 C CNN
F 2 "Resistors_SMD:R_0805" V 10230 1550 50  0001 C CNN
F 3 "" H 10300 1550 50  0000 C CNN
	1    10300 1550
	0    1    1    0   
$EndComp
$Comp
L vfd1-rescue:R R17
U 1 1 58BECD6A
P 10300 2250
F 0 "R17" V 10250 2050 50  0000 C CNN
F 1 "56k" V 10300 2250 50  0000 C CNN
F 2 "Resistors_SMD:R_0805" V 10230 2250 50  0001 C CNN
F 3 "" H 10300 2250 50  0000 C CNN
	1    10300 2250
	0    1    1    0   
$EndComp
$Comp
L vfd1-rescue:R R15
U 1 1 58BECE8B
P 10300 1750
F 0 "R15" V 10250 1550 50  0000 C CNN
F 1 "56k" V 10300 1750 50  0000 C CNN
F 2 "Resistors_SMD:R_0805" V 10230 1750 50  0001 C CNN
F 3 "" H 10300 1750 50  0000 C CNN
	1    10300 1750
	0    1    1    0   
$EndComp
$Comp
L vfd1-rescue:R R13
U 1 1 58BECFBD
P 10300 2150
F 0 "R13" V 10250 1950 50  0000 C CNN
F 1 "56k" V 10300 2150 50  0000 C CNN
F 2 "Resistors_SMD:R_0805" V 10230 2150 50  0001 C CNN
F 3 "" H 10300 2150 50  0000 C CNN
	1    10300 2150
	0    1    1    0   
$EndComp
$Comp
L vfd1-rescue:R R11
U 1 1 58BED0F0
P 10300 2050
F 0 "R11" V 10250 1850 50  0000 C CNN
F 1 "56k" V 10300 2050 50  0000 C CNN
F 2 "Resistors_SMD:R_0805" V 10230 2050 50  0001 C CNN
F 3 "" H 10300 2050 50  0000 C CNN
	1    10300 2050
	0    1    1    0   
$EndComp
$Comp
L power:-24V #PWR048
U 1 1 58BF03BB
P 10450 2050
F 0 "#PWR048" H 10450 2150 50  0001 C CNN
F 1 "-24V" V 10450 2250 50  0000 C CNN
F 2 "" H 10450 2050 50  0000 C CNN
F 3 "" H 10450 2050 50  0000 C CNN
	1    10450 2050
	0    1    1    0   
$EndComp
$Comp
L power:-24V #PWR049
U 1 1 58BF04E1
P 10450 2150
F 0 "#PWR049" H 10450 2250 50  0001 C CNN
F 1 "-24V" V 10450 2350 50  0000 C CNN
F 2 "" H 10450 2150 50  0000 C CNN
F 3 "" H 10450 2150 50  0000 C CNN
	1    10450 2150
	0    1    1    0   
$EndComp
$Comp
L power:-24V #PWR051
U 1 1 58BF0600
P 10450 1750
F 0 "#PWR051" H 10450 1850 50  0001 C CNN
F 1 "-24V" V 10450 1950 50  0000 C CNN
F 2 "" H 10450 1750 50  0000 C CNN
F 3 "" H 10450 1750 50  0000 C CNN
	1    10450 1750
	0    1    1    0   
$EndComp
$Comp
L power:-24V #PWR052
U 1 1 58BF071F
P 10450 1950
F 0 "#PWR052" H 10450 2050 50  0001 C CNN
F 1 "-24V" V 10450 2150 50  0000 C CNN
F 2 "" H 10450 1950 50  0000 C CNN
F 3 "" H 10450 1950 50  0000 C CNN
	1    10450 1950
	0    1    1    0   
$EndComp
$Comp
L power:-24V #PWR053
U 1 1 58BF083E
P 10450 1550
F 0 "#PWR053" H 10450 1650 50  0001 C CNN
F 1 "-24V" V 10450 1750 50  0000 C CNN
F 2 "" H 10450 1550 50  0000 C CNN
F 3 "" H 10450 1550 50  0000 C CNN
	1    10450 1550
	0    1    1    0   
$EndComp
$Comp
L power:-24V #PWR054
U 1 1 58BF095D
P 10450 1450
F 0 "#PWR054" H 10450 1550 50  0001 C CNN
F 1 "-24V" V 10450 1650 50  0000 C CNN
F 2 "" H 10450 1450 50  0000 C CNN
F 3 "" H 10450 1450 50  0000 C CNN
	1    10450 1450
	0    1    1    0   
$EndComp
$Comp
L power:-24V #PWR055
U 1 1 58BF0A7C
P 10450 1850
F 0 "#PWR055" H 10450 1950 50  0001 C CNN
F 1 "-24V" V 10450 2050 50  0000 C CNN
F 2 "" H 10450 1850 50  0000 C CNN
F 3 "" H 10450 1850 50  0000 C CNN
	1    10450 1850
	0    1    1    0   
$EndComp
$Comp
L power:-24V #PWR056
U 1 1 58BF0B9B
P 10450 1650
F 0 "#PWR056" H 10450 1750 50  0001 C CNN
F 1 "-24V" V 10450 1850 50  0000 C CNN
F 2 "" H 10450 1650 50  0000 C CNN
F 3 "" H 10450 1650 50  0000 C CNN
	1    10450 1650
	0    1    1    0   
$EndComp
$Comp
L power:-24V #PWR057
U 1 1 58BF0CBA
P 10450 2250
F 0 "#PWR057" H 10450 2350 50  0001 C CNN
F 1 "-24V" V 10450 2450 50  0000 C CNN
F 2 "" H 10450 2250 50  0000 C CNN
F 3 "" H 10450 2250 50  0000 C CNN
	1    10450 2250
	0    1    1    0   
$EndComp
$Comp
L power:-24V #PWR070
U 1 1 58BF0DD9
P 9200 3450
F 0 "#PWR070" H 9200 3550 50  0001 C CNN
F 1 "-24V" V 9200 3650 50  0000 C CNN
F 2 "" H 9200 3450 50  0000 C CNN
F 3 "" H 9200 3450 50  0000 C CNN
	1    9200 3450
	-1   0    0    1   
$EndComp
$Comp
L power:-24V #PWR069
U 1 1 58BF0EF8
P 8800 3450
F 0 "#PWR069" H 8800 3550 50  0001 C CNN
F 1 "-24V" V 8800 3650 50  0000 C CNN
F 2 "" H 8800 3450 50  0000 C CNN
F 3 "" H 8800 3450 50  0000 C CNN
	1    8800 3450
	-1   0    0    1   
$EndComp
$Comp
L power:-24V #PWR068
U 1 1 58BF1017
P 8700 3450
F 0 "#PWR068" H 8700 3550 50  0001 C CNN
F 1 "-24V" V 8700 3650 50  0000 C CNN
F 2 "" H 8700 3450 50  0000 C CNN
F 3 "" H 8700 3450 50  0000 C CNN
	1    8700 3450
	-1   0    0    1   
$EndComp
$Comp
L power:-24V #PWR067
U 1 1 58BF1136
P 8900 3450
F 0 "#PWR067" H 8900 3550 50  0001 C CNN
F 1 "-24V" V 8900 3650 50  0000 C CNN
F 2 "" H 8900 3450 50  0000 C CNN
F 3 "" H 8900 3450 50  0000 C CNN
	1    8900 3450
	-1   0    0    1   
$EndComp
$Comp
L power:-24V #PWR066
U 1 1 58BF1255
P 9100 3450
F 0 "#PWR066" H 9100 3550 50  0001 C CNN
F 1 "-24V" V 9100 3650 50  0000 C CNN
F 2 "" H 9100 3450 50  0000 C CNN
F 3 "" H 9100 3450 50  0000 C CNN
	1    9100 3450
	-1   0    0    1   
$EndComp
$Comp
L power:-24V #PWR065
U 1 1 58BF1374
P 8600 3450
F 0 "#PWR065" H 8600 3550 50  0001 C CNN
F 1 "-24V" V 8600 3650 50  0000 C CNN
F 2 "" H 8600 3450 50  0000 C CNN
F 3 "" H 8600 3450 50  0000 C CNN
	1    8600 3450
	-1   0    0    1   
$EndComp
$Comp
L power:-24V #PWR064
U 1 1 58BF1493
P 9000 3450
F 0 "#PWR064" H 9000 3550 50  0001 C CNN
F 1 "-24V" V 9000 3650 50  0000 C CNN
F 2 "" H 9000 3450 50  0000 C CNN
F 3 "" H 9000 3450 50  0000 C CNN
	1    9000 3450
	-1   0    0    1   
$EndComp
$Comp
L power:-24V #PWR063
U 1 1 58BF15B2
P 8500 3450
F 0 "#PWR063" H 8500 3550 50  0001 C CNN
F 1 "-24V" V 8500 3650 50  0000 C CNN
F 2 "" H 8500 3450 50  0000 C CNN
F 3 "" H 8500 3450 50  0000 C CNN
	1    8500 3450
	-1   0    0    1   
$EndComp
$Comp
L power:-24V #PWR062
U 1 1 58BF16D1
P 10400 3000
F 0 "#PWR062" H 10400 3100 50  0001 C CNN
F 1 "-30V" H 10400 3150 50  0000 C CNN
F 2 "" H 10400 3000 50  0000 C CNN
F 3 "" H 10400 3000 50  0000 C CNN
F 4 "-" H 10400 3000 60  0001 C CNN "OrderNr"
F 5 "-" H 10400 3000 60  0001 C CNN "Distributor"
	1    10400 3000
	0    1    1    0   
$EndComp
$Comp
L power:-24V #PWR041
U 1 1 58BF2646
P 8400 1600
F 0 "#PWR041" H 8400 1700 50  0001 C CNN
F 1 "-24V" H 8400 1750 50  0000 C CNN
F 2 "" H 8400 1600 50  0000 C CNN
F 3 "" H 8400 1600 50  0000 C CNN
	1    8400 1600
	0    -1   -1   0   
$EndComp
$Comp
L power:-24V #PWR026
U 1 1 58C0FCBA
P 9400 5100
F 0 "#PWR026" H 9400 5200 50  0001 C CNN
F 1 "-30V" H 9400 5250 50  0000 C CNN
F 2 "" H 9400 5100 50  0000 C CNN
F 3 "" H 9400 5100 50  0000 C CNN
F 4 "-" H 9400 5100 60  0001 C CNN "OrderNr"
F 5 "-" H 9400 5100 60  0001 C CNN "Distributor"
	1    9400 5100
	0    -1   -1   0   
$EndComp
$Comp
L mylib:MYUSB_B P10
U 1 1 58C1BBE3
P 850 4950
F 0 "P10" H 1050 4750 50  0000 C CNN
F 1 "Micro USB-B" H 800 5150 50  0000 C CNN
F 2 "myfootprints:MICROUSBB" V 800 4850 50  0001 C CNN
F 3 "" V 800 4850 50  0000 C CNN
F 4 "2293753" H 850 4950 60  0001 C CNN "OrderNr"
F 5 "F" H 850 4950 60  0001 C CNN "Distributor"
	1    850  4950
	0    -1   1    0   
$EndComp
$Comp
L power:+5V #PWR0101
U 1 1 58C1C3AA
P 1400 4700
F 0 "#PWR0101" H 1400 4550 50  0001 C CNN
F 1 "+5V" H 1400 4840 50  0000 C CNN
F 2 "" H 1400 4700 50  0000 C CNN
F 3 "" H 1400 4700 50  0000 C CNN
	1    1400 4700
	1    0    0    -1  
$EndComp
$Comp
L power:GND #PWR015
U 1 1 58C1C476
P 1150 5050
F 0 "#PWR015" H 1150 4800 50  0001 C CNN
F 1 "GND" H 1150 4900 50  0000 C CNN
F 2 "" H 1150 5050 50  0000 C CNN
F 3 "" H 1150 5050 50  0000 C CNN
	1    1150 5050
	1    0    0    -1  
$EndComp
$Comp
L power:GND #PWR016
U 1 1 58C1C59C
P 750 5250
F 0 "#PWR016" H 750 5000 50  0001 C CNN
F 1 "GND" H 750 5100 50  0000 C CNN
F 2 "" H 750 5250 50  0000 C CNN
F 3 "" H 750 5250 50  0000 C CNN
	1    750  5250
	1    0    0    -1  
$EndComp
$Comp
L vfd1-rescue:C C5
U 1 1 58C1DB5C
P 6050 3350
F 0 "C5" V 6000 3200 50  0000 L CNN
F 1 "47µ/10V" V 6000 3400 50  0000 L CNN
F 2 "Capacitors_SMD:C_1206" H 6088 3200 50  0001 C CNN
F 3 "" H 6050 3350 50  0000 C CNN
F 4 "X5R-G1206 47/10" H 6050 3350 60  0001 C CNN "OrderNr"
F 5 "-" H 6050 3350 60  0001 C CNN "Distributor"
	1    6050 3350
	1    0    0    -1  
$EndComp
$Comp
L vfd1-rescue:C C6
U 1 1 58C1DC93
P 6250 3350
F 0 "C6" V 6200 3200 50  0000 L CNN
F 1 "47µ/10V" V 6200 3400 50  0000 L CNN
F 2 "Capacitors_SMD:C_1206" H 6288 3200 50  0001 C CNN
F 3 "" H 6250 3350 50  0000 C CNN
F 4 "X5R-G1206 47/10" H 6250 3350 60  0001 C CNN "OrderNr"
F 5 "-" H 6250 3350 60  0001 C CNN "Distributor"
	1    6250 3350
	1    0    0    -1  
$EndComp
$Comp
L vfd1-rescue:C C11
U 1 1 58C1DDC1
P 6450 3350
F 0 "C11" V 6400 3150 50  0000 L CNN
F 1 "47µ/10V" V 6400 3400 50  0000 L CNN
F 2 "Capacitors_SMD:C_1206" H 6488 3200 50  0001 C CNN
F 3 "" H 6450 3350 50  0000 C CNN
F 4 "X5R-G1206 47/10" H 6450 3350 60  0001 C CNN "OrderNr"
F 5 "-" H 6450 3350 60  0001 C CNN "Distributor"
	1    6450 3350
	1    0    0    -1  
$EndComp
$Comp
L power:GND #PWR017
U 1 1 58C1DEF2
P 6050 3500
F 0 "#PWR017" H 6050 3250 50  0001 C CNN
F 1 "GND" H 6050 3350 50  0000 C CNN
F 2 "" H 6050 3500 50  0000 C CNN
F 3 "" H 6050 3500 50  0000 C CNN
	1    6050 3500
	1    0    0    -1  
$EndComp
$Comp
L power:GND #PWR018
U 1 1 58C1E01A
P 6250 3500
F 0 "#PWR018" H 6250 3250 50  0001 C CNN
F 1 "GND" H 6250 3350 50  0000 C CNN
F 2 "" H 6250 3500 50  0000 C CNN
F 3 "" H 6250 3500 50  0000 C CNN
	1    6250 3500
	1    0    0    -1  
$EndComp
$Comp
L power:GND #PWR019
U 1 1 58C1E142
P 6450 3500
F 0 "#PWR019" H 6450 3250 50  0001 C CNN
F 1 "GND" H 6450 3350 50  0000 C CNN
F 2 "" H 6450 3500 50  0000 C CNN
F 3 "" H 6450 3500 50  0000 C CNN
	1    6450 3500
	1    0    0    -1  
$EndComp
$Comp
L power:+5V #PWR020
U 1 1 58C1E26A
P 6250 3000
F 0 "#PWR020" H 6250 2850 50  0001 C CNN
F 1 "+5V" H 6250 3140 50  0000 C CNN
F 2 "" H 6250 3000 50  0000 C CNN
F 3 "" H 6250 3000 50  0000 C CNN
	1    6250 3000
	1    0    0    -1  
$EndComp
$Comp
L power:+5V #PWR021
U 1 1 58C1E5E0
P 6050 3000
F 0 "#PWR021" H 6050 2850 50  0001 C CNN
F 1 "+5V" H 6050 3140 50  0000 C CNN
F 2 "" H 6050 3000 50  0000 C CNN
F 3 "" H 6050 3000 50  0000 C CNN
	1    6050 3000
	1    0    0    -1  
$EndComp
$Comp
L power:+5V #PWR022
U 1 1 58C1E708
P 6450 3000
F 0 "#PWR022" H 6450 2850 50  0001 C CNN
F 1 "+5V" H 6450 3140 50  0000 C CNN
F 2 "" H 6450 3000 50  0000 C CNN
F 3 "" H 6450 3000 50  0000 C CNN
	1    6450 3000
	1    0    0    -1  
$EndComp
$Comp
L vfd1-rescue:R R45
U 1 1 58C1906C
P 1650 4650
F 0 "R45" V 1730 4650 50  0000 C CNN
F 1 "2k2" V 1650 4650 50  0000 C CNN
F 2 "Resistors_SMD:R_0805" V 1580 4650 50  0001 C CNN
F 3 "" H 1650 4650 50  0000 C CNN
	1    1650 4650
	-1   0    0    1   
$EndComp
$Comp
L vfd1-rescue:R R48
U 1 1 58C191B1
P 2100 4850
F 0 "R48" V 2150 5050 50  0000 C CNN
F 1 "68" V 2100 4850 50  0000 C CNN
F 2 "Resistors_SMD:R_0805" V 2030 4850 50  0001 C CNN
F 3 "" H 2100 4850 50  0000 C CNN
	1    2100 4850
	0    -1   -1   0   
$EndComp
$Comp
L vfd1-rescue:R R49
U 1 1 58C192FB
P 2100 4950
F 0 "R49" V 2150 5150 50  0000 C CNN
F 1 "68" V 2100 4950 50  0000 C CNN
F 2 "Resistors_SMD:R_0805" V 2030 4950 50  0001 C CNN
F 3 "" H 2100 4950 50  0000 C CNN
	1    2100 4950
	0    -1   -1   0   
$EndComp
$Comp
L vfd1-rescue:ZENER D4
U 1 1 58C193D3
P 1650 5200
F 0 "D4" H 1650 5300 50  0000 C CNN
F 1 "3,6V" H 1650 5100 50  0000 C CNN
F 2 "Diodes_SMD:D_MiniMELF_Standard" H 1650 5200 50  0001 C CNN
F 3 "" H 1650 5200 50  0000 C CNN
F 4 "SMD ZF 3,6" H 1650 5200 60  0001 C CNN "OrderNr"
F 5 "-" H 1650 5200 60  0001 C CNN "Distributor"
	1    1650 5200
	0    1    1    0   
$EndComp
$Comp
L vfd1-rescue:ZENER D5
U 1 1 58C19806
P 1850 5200
F 0 "D5" H 1850 5300 50  0000 C CNN
F 1 "3,6V" H 1850 5100 50  0000 C CNN
F 2 "Diodes_SMD:D_MiniMELF_Standard" H 1850 5200 50  0001 C CNN
F 3 "" H 1850 5200 50  0000 C CNN
F 4 "SMD ZF 3,6" H 1850 5200 60  0001 C CNN "OrderNr"
F 5 "-" H 1850 5200 60  0001 C CNN "Distributor"
	1    1850 5200
	0    1    1    0   
$EndComp
$Comp
L power:GND #PWR023
U 1 1 58C198E6
P 1650 5400
F 0 "#PWR023" H 1650 5150 50  0001 C CNN
F 1 "GND" H 1650 5250 50  0000 C CNN
F 2 "" H 1650 5400 50  0000 C CNN
F 3 "" H 1650 5400 50  0000 C CNN
	1    1650 5400
	1    0    0    -1  
$EndComp
$Comp
L power:GND #PWR024
U 1 1 58C19A27
P 1850 5400
F 0 "#PWR024" H 1850 5150 50  0001 C CNN
F 1 "GND" H 1850 5250 50  0000 C CNN
F 2 "" H 1850 5400 50  0000 C CNN
F 3 "" H 1850 5400 50  0000 C CNN
	1    1850 5400
	1    0    0    -1  
$EndComp
$Comp
L power:+5V #PWR025
U 1 1 58C1A60A
P 1650 4500
F 0 "#PWR025" H 1650 4350 50  0001 C CNN
F 1 "+5V" H 1650 4640 50  0000 C CNN
F 2 "" H 1650 4500 50  0000 C CNN
F 3 "" H 1650 4500 50  0000 C CNN
	1    1650 4500
	1    0    0    -1  
$EndComp
Text Label 2450 4850 0    60   ~ 0
D-
Text Label 2450 4950 0    60   ~ 0
D+
Text Label 3100 4850 0    60   ~ 0
D-
Text Label 3100 4750 0    60   ~ 0
D+
Text Label 7400 5350 2    60   ~ 0
MISO/gate_2
Text Label 7400 5450 2    60   ~ 0
SCK/gate_4
$Comp
L mylib:LT1931 U5
U 1 1 58E66416
P 1650 1550
F 0 "U5" H 1650 1850 60  0000 C CNN
F 1 "LT1931" H 1850 1200 60  0000 C CNN
F 2 "TO_SOT_Packages_SMD:TSOT-23-5" H 1600 1800 60  0001 C CNN
F 3 "" H 1600 1800 60  0001 C CNN
F 4 "1663806" H 1650 1550 60  0001 C CNN "OrderNr"
F 5 "F" H 1650 1550 60  0001 C CNN "Distributor"
	1    1650 1550
	1    0    0    -1  
$EndComp
$Comp
L vfd1-rescue:INDUCTOR L1
U 1 1 58E66DB0
P 1650 850
F 0 "L1" V 1600 850 50  0000 C CNN
F 1 "10µH" V 1750 850 50  0000 C CNN
F 2 "Inductors:Inductor_Wurth_MAPI-2512" H 1650 850 50  0001 C CNN
F 3 "" H 1650 850 50  0000 C CNN
F 4 "2455391" H 1650 850 60  0001 C CNN "OrderNr"
F 5 "F" H 1650 850 60  0001 C CNN "Distributor"
	1    1650 850 
	0    -1   -1   0   
$EndComp
$Comp
L vfd1-rescue:INDUCTOR L2
U 1 1 58E674F9
P 2800 850
F 0 "L2" V 2750 850 50  0000 C CNN
F 1 "10µH" V 2900 850 50  0000 C CNN
F 2 "Inductors:Inductor_Wurth_MAPI-2512" H 2800 850 50  0001 C CNN
F 3 "" H 2800 850 50  0000 C CNN
F 4 "2455391" H 2800 850 60  0001 C CNN "OrderNr"
F 5 "F" H 2800 850 60  0001 C CNN "Distributor"
	1    2800 850 
	0    -1   -1   0   
$EndComp
$Comp
L vfd1-rescue:D_Schottky D6
U 1 1 58E675E9
P 2400 1100
F 0 "D6" H 2400 1200 50  0000 C CNN
F 1 "NTS260SFT1G" H 2400 1000 50  0000 C CNN
F 2 "Diodes_SMD:D_SOD-123" H 2400 1100 50  0001 C CNN
F 3 "" H 2400 1100 50  0000 C CNN
F 4 "2473419/2760413" H 2400 1100 60  0001 C CNN "OrderNr"
F 5 "F" H 2400 1100 60  0001 C CNN "Distributor"
	1    2400 1100
	0    -1   -1   0   
$EndComp
$Comp
L vfd1-rescue:C C15
U 1 1 58E67859
P 2200 850
F 0 "C15" H 2225 950 50  0000 L CNN
F 1 "1µ/50V" H 2225 750 50  0000 L CNN
F 2 "Capacitors_SMD:C_1206" H 2238 700 50  0001 C CNN
F 3 "" H 2200 850 50  0000 C CNN
F 4 "1828838" H 2200 850 60  0001 C CNN "OrderNr"
F 5 "F" H 2200 850 60  0001 C CNN "Distributor"
	1    2200 850 
	0    1    1    0   
$EndComp
$Comp
L vfd1-rescue:C C14
U 1 1 58E6841D
P 750 1400
F 0 "C14" H 775 1500 50  0000 L CNN
F 1 "10µ" H 775 1300 50  0000 L CNN
F 2 "Capacitors_SMD:C_1206" H 788 1250 50  0001 C CNN
F 3 "" H 750 1400 50  0000 C CNN
F 4 "2672214" H 750 1400 60  0001 C CNN "OrderNr"
F 5 "F" H 750 1400 60  0001 C CNN "Distributor"
	1    750  1400
	1    0    0    -1  
$EndComp
$Comp
L vfd1-rescue:R R1
U 1 1 58E687D0
P 3350 1100
F 0 "R1" V 3430 1100 50  0000 C CNN
F 1 "220k" V 3350 1100 50  0000 C CNN
F 2 "Resistors_SMD:R_0805" V 3280 1100 50  0001 C CNN
F 3 "" H 3350 1100 50  0000 C CNN
F 4 "-" H 3350 1100 60  0001 C CNN "OrderNr"
F 5 "-" H 3350 1100 60  0001 C CNN "Distributor"
	1    3350 1100
	1    0    0    -1  
$EndComp
$Comp
L vfd1-rescue:R R2
U 1 1 58E68997
P 3350 1500
F 0 "R2" V 3430 1500 50  0000 C CNN
F 1 "10k" V 3350 1500 50  0000 C CNN
F 2 "Resistors_SMD:R_0805" V 3280 1500 50  0001 C CNN
F 3 "" H 3350 1500 50  0000 C CNN
F 4 "-" H 3350 1500 60  0001 C CNN "OrderNr"
F 5 "-" H 3350 1500 60  0001 C CNN "Distributor"
	1    3350 1500
	1    0    0    -1  
$EndComp
$Comp
L power:GND #PWR0102
U 1 1 58E68B88
P 3350 1700
F 0 "#PWR0102" H 3350 1450 50  0001 C CNN
F 1 "GND" H 3350 1550 50  0000 C CNN
F 2 "" H 3350 1700 50  0000 C CNN
F 3 "" H 3350 1700 50  0000 C CNN
	1    3350 1700
	1    0    0    -1  
$EndComp
$Comp
L power:GND #PWR027
U 1 1 58E68CDE
P 1650 2100
F 0 "#PWR027" H 1650 1850 50  0001 C CNN
F 1 "GND" H 1650 1950 50  0000 C CNN
F 2 "" H 1650 2100 50  0000 C CNN
F 3 "" H 1650 2100 50  0000 C CNN
	1    1650 2100
	1    0    0    -1  
$EndComp
$Comp
L power:GND #PWR028
U 1 1 58E68E2D
P 750 2100
F 0 "#PWR028" H 750 1850 50  0001 C CNN
F 1 "GND" H 750 1950 50  0000 C CNN
F 2 "" H 750 2100 50  0000 C CNN
F 3 "" H 750 2100 50  0000 C CNN
	1    750  2100
	1    0    0    -1  
$EndComp
$Comp
L power:GND #PWR029
U 1 1 58E68F7C
P 2400 1300
F 0 "#PWR029" H 2400 1050 50  0001 C CNN
F 1 "GND" H 2400 1150 50  0000 C CNN
F 2 "" H 2400 1300 50  0000 C CNN
F 3 "" H 2400 1300 50  0000 C CNN
	1    2400 1300
	1    0    0    -1  
$EndComp
$Comp
L power:+5V #PWR030
U 1 1 58E75885
P 1350 6200
F 0 "#PWR030" H 1350 6050 50  0001 C CNN
F 1 "+5V" H 1350 6340 50  0000 C CNN
F 2 "" H 1350 6200 50  0000 C CNN
F 3 "" H 1350 6200 50  0000 C CNN
	1    1350 6200
	0    1    1    0   
$EndComp
$Comp
L power:+5V #PWR031
U 1 1 58E759DE
P 1350 6500
F 0 "#PWR031" H 1350 6350 50  0001 C CNN
F 1 "+5V" H 1350 6640 50  0000 C CNN
F 2 "" H 1350 6500 50  0000 C CNN
F 3 "" H 1350 6500 50  0000 C CNN
	1    1350 6500
	0    1    1    0   
$EndComp
Text Label 1900 6600 0    60   ~ 0
seg_d
Text Label 1900 6300 0    60   ~ 0
seg_dp
Text Label 2950 6700 0    60   ~ 0
sd
Text Label 2850 6400 0    60   ~ 0
sdp
$Comp
L power:+5V #PWR032
U 1 1 58E78DD5
P 2700 6200
F 0 "#PWR032" H 2700 6050 50  0001 C CNN
F 1 "+5V" H 2700 6340 50  0000 C CNN
F 2 "" H 2700 6200 50  0000 C CNN
F 3 "" H 2700 6200 50  0000 C CNN
	1    2700 6200
	0    1    1    0   
$EndComp
$Comp
L power:+5V #PWR033
U 1 1 58E78DDB
P 2700 6500
F 0 "#PWR033" H 2700 6350 50  0001 C CNN
F 1 "+5V" H 2700 6640 50  0000 C CNN
F 2 "" H 2700 6500 50  0000 C CNN
F 3 "" H 2700 6500 50  0000 C CNN
	1    2700 6500
	0    1    1    0   
$EndComp
Text Label 3250 6600 0    60   ~ 0
seg_f
Text Label 3250 6300 0    60   ~ 0
seg_a
Text Label 4200 6700 0    60   ~ 0
sf
Text Label 4250 6400 0    60   ~ 0
sa
$Comp
L power:+5V #PWR034
U 1 1 58E7C142
P 4050 6200
F 0 "#PWR034" H 4050 6050 50  0001 C CNN
F 1 "+5V" H 4050 6340 50  0000 C CNN
F 2 "" H 4050 6200 50  0000 C CNN
F 3 "" H 4050 6200 50  0000 C CNN
	1    4050 6200
	0    1    1    0   
$EndComp
$Comp
L power:+5V #PWR035
U 1 1 58E7C148
P 4050 6500
F 0 "#PWR035" H 4050 6350 50  0001 C CNN
F 1 "+5V" H 4050 6640 50  0000 C CNN
F 2 "" H 4050 6500 50  0000 C CNN
F 3 "" H 4050 6500 50  0000 C CNN
	1    4050 6500
	0    1    1    0   
$EndComp
Text Label 4550 6600 0    60   ~ 0
seg_c
Text Label 4550 6300 0    60   ~ 0
seg_e
Text Label 5550 6700 0    60   ~ 0
sc
Text Label 5500 6400 0    60   ~ 0
se
$Comp
L power:+5V #PWR036
U 1 1 58E7D6B5
P 5350 6200
F 0 "#PWR036" H 5350 6050 50  0001 C CNN
F 1 "+5V" H 5350 6340 50  0000 C CNN
F 2 "" H 5350 6200 50  0000 C CNN
F 3 "" H 5350 6200 50  0000 C CNN
	1    5350 6200
	0    1    1    0   
$EndComp
$Comp
L power:+5V #PWR037
U 1 1 58E7D6BB
P 5350 6500
F 0 "#PWR037" H 5350 6350 50  0001 C CNN
F 1 "+5V" H 5350 6640 50  0000 C CNN
F 2 "" H 5350 6500 50  0000 C CNN
F 3 "" H 5350 6500 50  0000 C CNN
	1    5350 6500
	0    1    1    0   
$EndComp
Text Label 550  7450 0    60   ~ 0
MISO/gate_2
Text Label 550  7150 0    60   ~ 0
SCK/gate_4
Text Label 1550 7550 0    60   ~ 0
g2
Text Label 1450 7250 0    60   ~ 0
g4
$Comp
L power:+5V #PWR038
U 1 1 58E81977
P 1350 7050
F 0 "#PWR038" H 1350 6900 50  0001 C CNN
F 1 "+5V" H 1350 7190 50  0000 C CNN
F 2 "" H 1350 7050 50  0000 C CNN
F 3 "" H 1350 7050 50  0000 C CNN
	1    1350 7050
	0    1    1    0   
$EndComp
$Comp
L power:+5V #PWR039
U 1 1 58E8197D
P 1350 7350
F 0 "#PWR039" H 1350 7200 50  0001 C CNN
F 1 "+5V" H 1350 7490 50  0000 C CNN
F 2 "" H 1350 7350 50  0000 C CNN
F 3 "" H 1350 7350 50  0000 C CNN
	1    1350 7350
	0    1    1    0   
$EndComp
Text Label 1900 7450 0    60   ~ 0
gate_6
Text Label 1900 7150 0    60   ~ 0
gate_7
Text Label 2950 7550 0    60   ~ 0
g6
Text Label 2800 7250 0    60   ~ 0
g7
$Comp
L power:+5V #PWR040
U 1 1 58E83CFF
P 2700 7050
F 0 "#PWR040" H 2700 6900 50  0001 C CNN
F 1 "+5V" H 2700 7190 50  0000 C CNN
F 2 "" H 2700 7050 50  0000 C CNN
F 3 "" H 2700 7050 50  0000 C CNN
	1    2700 7050
	0    1    1    0   
$EndComp
$Comp
L power:+5V #PWR0103
U 1 1 58E83D05
P 2700 7350
F 0 "#PWR0103" H 2700 7200 50  0001 C CNN
F 1 "+5V" H 2700 7490 50  0000 C CNN
F 2 "" H 2700 7350 50  0000 C CNN
F 3 "" H 2700 7350 50  0000 C CNN
	1    2700 7350
	0    1    1    0   
$EndComp
Text Label 3250 7450 0    60   ~ 0
gate_8
Text Label 3250 7150 0    60   ~ 0
gate_5
Text Label 4200 7550 0    60   ~ 0
g8
Text Label 4250 7250 0    60   ~ 0
g5
$Comp
L power:+5V #PWR042
U 1 1 58E84287
P 4050 7050
F 0 "#PWR042" H 4050 6900 50  0001 C CNN
F 1 "+5V" H 4050 7190 50  0000 C CNN
F 2 "" H 4050 7050 50  0000 C CNN
F 3 "" H 4050 7050 50  0000 C CNN
	1    4050 7050
	0    1    1    0   
$EndComp
$Comp
L power:+5V #PWR043
U 1 1 58E8428D
P 4050 7350
F 0 "#PWR043" H 4050 7200 50  0001 C CNN
F 1 "+5V" H 4050 7490 50  0000 C CNN
F 2 "" H 4050 7350 50  0000 C CNN
F 3 "" H 4050 7350 50  0000 C CNN
	1    4050 7350
	0    1    1    0   
$EndComp
Text Label 4550 7150 0    60   ~ 0
gate_1
Text Label 4550 7450 0    60   ~ 0
gate_3
Text Label 5450 7250 0    60   ~ 0
g1
Text Label 5550 7550 0    60   ~ 0
g3
$Comp
L power:+5V #PWR044
U 1 1 58E84811
P 5350 7050
F 0 "#PWR044" H 5350 6900 50  0001 C CNN
F 1 "+5V" H 5350 7190 50  0000 C CNN
F 2 "" H 5350 7050 50  0000 C CNN
F 3 "" H 5350 7050 50  0000 C CNN
	1    5350 7050
	0    1    1    0   
$EndComp
$Comp
L power:+5V #PWR045
U 1 1 58E84817
P 5350 7350
F 0 "#PWR045" H 5350 7200 50  0001 C CNN
F 1 "+5V" H 5350 7490 50  0000 C CNN
F 2 "" H 5350 7350 50  0000 C CNN
F 3 "" H 5350 7350 50  0000 C CNN
	1    5350 7350
	0    1    1    0   
$EndComp
$Comp
L power:-24V #PWR0104
U 1 1 58EA6698
P 3350 850
F 0 "#PWR0104" H 3350 950 50  0001 C CNN
F 1 "-30V" H 3350 1000 50  0000 C CNN
F 2 "" H 3350 850 50  0000 C CNN
F 3 "" H 3350 850 50  0000 C CNN
F 4 "-" H 3350 850 60  0001 C CNN "OrderNr"
F 5 "-" H 3350 850 60  0001 C CNN "Distributor"
	1    3350 850 
	-1   0    0    -1  
$EndComp
$Comp
L vfd1-rescue:ATMEGA88-A IC1
U 1 1 58E76ED6
P 4450 4050
F 0 "IC1" H 3700 5300 50  0000 L BNN
F 1 "ATMEGA88-A" H 4900 2650 50  0000 L BNN
F 2 "Universal:TQFP32" H 4450 4050 50  0000 C CIN
F 3 "" H 4450 4050 50  0000 C CNN
F 4 "ATMEGA 88-20 AU" H 4450 4050 60  0001 C CNN "OrderNr"
F 5 "-" H 4450 4050 60  0001 C CNN "Distributor"
	1    4450 4050
	-1   0    0    -1  
$EndComp
$Comp
L power:+5V #PWR046
U 1 1 58E7808C
P 5400 2850
F 0 "#PWR046" H 5400 2700 50  0001 C CNN
F 1 "+5V" H 5400 2990 50  0000 C CNN
F 2 "" H 5400 2850 50  0000 C CNN
F 3 "" H 5400 2850 50  0000 C CNN
	1    5400 2850
	1    0    0    -1  
$EndComp
$Comp
L power:GND #PWR047
U 1 1 58E784D5
P 5450 5300
F 0 "#PWR047" H 5450 5050 50  0001 C CNN
F 1 "GND" H 5450 5150 50  0000 C CNN
F 2 "" H 5450 5300 50  0000 C CNN
F 3 "" H 5450 5300 50  0000 C CNN
	1    5450 5300
	1    0    0    -1  
$EndComp
Text Label 3400 3350 2    60   ~ 0
MISO/gate_2
Text Label 3400 3450 2    60   ~ 0
SCK/gate_4
Text Label 3400 3250 2    60   ~ 0
IR/MOSI
$Comp
L vfd1-rescue:R R4
U 1 1 58E7B767
P 2950 4400
F 0 "R4" V 3030 4400 50  0000 C CNN
F 1 "10k" V 2950 4400 50  0000 C CNN
F 2 "Resistors_SMD:R_0805" V 2880 4400 50  0001 C CNN
F 3 "" H 2950 4400 50  0000 C CNN
	1    2950 4400
	0    1    1    0   
$EndComp
$Comp
L power:+5V #PWR0105
U 1 1 58E7B8E3
P 2700 4400
F 0 "#PWR0105" H 2700 4250 50  0001 C CNN
F 1 "+5V" H 2700 4540 50  0000 C CNN
F 2 "" H 2700 4400 50  0000 C CNN
F 3 "" H 2700 4400 50  0000 C CNN
	1    2700 4400
	0    -1   -1   0   
$EndComp
Text Label 3400 4400 2    60   ~ 0
RESET
Text Label 5950 7500 0    60   ~ 0
gate_9
Text Label 6750 7600 0    60   ~ 0
g9
$Comp
L power:+5V #PWR0106
U 1 1 58E75FDB
P 6700 7100
F 0 "#PWR0106" H 6700 6950 50  0001 C CNN
F 1 "+5V" H 6700 7240 50  0000 C CNN
F 2 "" H 6700 7100 50  0000 C CNN
F 3 "" H 6700 7100 50  0000 C CNN
	1    6700 7100
	0    1    1    0   
$EndComp
$Comp
L power:+5V #PWR050
U 1 1 58E75FE1
P 6700 7400
F 0 "#PWR050" H 6700 7250 50  0001 C CNN
F 1 "+5V" H 6700 7540 50  0000 C CNN
F 2 "" H 6700 7400 50  0000 C CNN
F 3 "" H 6700 7400 50  0000 C CNN
	1    6700 7400
	0    1    1    0   
$EndComp
$Comp
L power:+5V #PWR0107
U 1 1 58E76792
P 6050 7200
F 0 "#PWR0107" H 6050 7050 50  0001 C CNN
F 1 "+5V" H 6050 7340 50  0000 C CNN
F 2 "" H 6050 7200 50  0000 C CNN
F 3 "" H 6050 7200 50  0000 C CNN
	1    6050 7200
	0    -1   -1   0   
$EndComp
Text Label 3100 3650 0    60   ~ 0
gate_9
Text Label 3100 5150 0    60   ~ 0
gate_1
Text Label 3100 4950 0    60   ~ 0
gate_3
Text Label 3150 2950 0    60   ~ 0
gate_5
Text Label 3100 5250 0    60   ~ 0
gate_8
Text Label 3100 3150 0    60   ~ 0
gate_7
Text Label 3100 3050 0    60   ~ 0
gate_6
Text Label 3100 3800 0    60   ~ 0
seg_d
Text Label 3100 3900 0    60   ~ 0
seg_dp
Text Label 3100 4000 0    60   ~ 0
seg_c
Text Label 3100 4100 0    60   ~ 0
seg_e
Text Label 3100 4200 0    60   ~ 0
seg_b
Text Label 3100 4300 0    60   ~ 0
seg_g
Text Label 3100 4550 0    60   ~ 0
seg_f
Text Label 3100 4650 0    60   ~ 0
seg_a
$Comp
L vfd1-rescue:C C7
U 1 1 58E879FF
P 3600 1350
F 0 "C7" H 3625 1450 50  0000 L CNN
F 1 "10µ/50V" H 3625 1250 50  0000 L CNN
F 2 "Capacitors_SMD:C_1206" H 3638 1200 50  0001 C CNN
F 3 "" H 3600 1350 50  0000 C CNN
F 4 "2672214" H 3600 1350 60  0001 C CNN "OrderNr"
F 5 "F" H 3600 1350 60  0001 C CNN "Distributor"
	1    3600 1350
	-1   0    0    1   
$EndComp
$Comp
L power:GND #PWR0108
U 1 1 58E87D34
P 3600 1700
F 0 "#PWR0108" H 3600 1450 50  0001 C CNN
F 1 "GND" H 3600 1550 50  0000 C CNN
F 2 "" H 3600 1700 50  0000 C CNN
F 3 "" H 3600 1700 50  0000 C CNN
	1    3600 1700
	1    0    0    -1  
$EndComp
$Comp
L vfd1-rescue:R R7
U 1 1 58E8D492
P 2900 3550
F 0 "R7" V 2980 3550 50  0000 C CNN
F 1 "22" V 2900 3550 50  0000 C CNN
F 2 "Resistors_SMD:R_0805" V 2830 3550 50  0001 C CNN
F 3 "" H 2900 3550 50  0000 C CNN
	1    2900 3550
	0    1    1    0   
$EndComp
Text Label 3100 5050 0    60   ~ 0
FILDRV
$Comp
L power:+5V #PWR0109
U 1 1 58E91794
P 750 850
F 0 "#PWR0109" H 750 700 50  0001 C CNN
F 1 "+5V" H 750 990 50  0000 C CNN
F 2 "" H 750 850 50  0000 C CNN
F 3 "" H 750 850 50  0000 C CNN
	1    750  850 
	1    0    0    -1  
$EndComp
$Comp
L mylib:OSCILLATOR P5
U 1 1 58E933D4
P 1850 3850
F 0 "P5" H 1650 4050 60  0000 C CNN
F 1 "16MHz" H 1850 3600 60  0000 C CNN
F 2 "myfootprints:SMDOSZIL" H 1400 3700 60  0001 C CNN
F 3 "" H 1400 3700 60  0001 C CNN
F 4 "XO32 16,00000" H 1850 3850 60  0001 C CNN "OrderNr"
F 5 "-" H 1850 3850 60  0001 C CNN "Distributor"
	1    1850 3850
	1    0    0    -1  
$EndComp
$Comp
L mylib:TSOP752 U2
U 1 1 58E977B0
P 800 2850
F 0 "U2" H 700 2550 60  0000 C CNN
F 1 "TSOP752" H 800 3150 60  0000 C CNN
F 2 "myfootprints:TSOP752" H 800 2850 60  0001 C CNN
F 3 "" H 800 2850 60  0001 C CNN
F 4 "2251422" H 800 2850 60  0001 C CNN "OrderNr"
F 5 "F" H 800 2850 60  0001 C CNN "Distributor"
	1    800  2850
	1    0    0    -1  
$EndComp
$Comp
L vfd1-rescue:C C9
U 1 1 58B87650
P 1200 3850
F 0 "C9" H 1225 3950 50  0000 L CNN
F 1 "100n" H 1225 3750 50  0000 L CNN
F 2 "Capacitors_SMD:C_0805" H 1238 3700 50  0001 C CNN
F 3 "" H 1200 3850 50  0000 C CNN
	1    1200 3850
	1    0    0    -1  
$EndComp
$Comp
L power:+5V #PWR0110
U 1 1 58E9D0FA
P 1400 3750
F 0 "#PWR0110" H 1400 3600 50  0001 C CNN
F 1 "+5V" H 1400 3890 50  0000 C CNN
F 2 "" H 1400 3750 50  0000 C CNN
F 3 "" H 1400 3750 50  0000 C CNN
	1    1400 3750
	1    0    0    -1  
$EndComp
$Comp
L vfd1-rescue:Jumper_NC_Small JP1
U 1 1 58E9E5F4
P 1300 4750
F 0 "JP1" H 1300 4830 50  0000 C CNN
F 1 "Jumper_NC_Small" H 1310 4690 50  0001 C CNN
F 2 "myfootprints:SOLDERJMP" H 1300 4750 50  0001 C CNN
F 3 "" H 1300 4750 50  0000 C CNN
F 4 "NA" H 1300 4750 60  0001 C CNN "OrderNr"
F 5 "-" H 1300 4750 60  0001 C CNN "Distributor"
	1    1300 4750
	1    0    0    -1  
$EndComp
$Comp
L vfd1-rescue:PMOS_DUAL_SOT363-RESCUE-vfd1 Q22
U 1 1 58F89851
P 1100 6450
F 0 "Q22" H 1000 6050 50  0000 R CNN
F 1 "BSS84AKS" H 1550 6800 50  0000 R CNN
F 2 "TO_SOT_Packages_SMD:SOT-363_SC-70-6" H 1250 6400 50  0001 C CNN
F 3 "" H 1050 6300 50  0000 C CNN
F 4 "1972665" H 1100 6450 60  0001 C CNN "OrderNr"
F 5 "F" H 1100 6450 60  0001 C CNN "Distributor"
	1    1100 6450
	1    0    0    1   
$EndComp
$Comp
L vfd1-rescue:PMOS_DUAL_SOT363-RESCUE-vfd1 Q23
U 1 1 58F89D01
P 2450 6450
F 0 "Q23" H 2350 6050 50  0000 R CNN
F 1 "BSS84AKS" H 2900 6800 50  0000 R CNN
F 2 "TO_SOT_Packages_SMD:SOT-363_SC-70-6" H 2600 6400 50  0001 C CNN
F 3 "" H 2400 6300 50  0000 C CNN
F 4 "1972665" H 2450 6450 60  0001 C CNN "OrderNr"
F 5 "F" H 2450 6450 60  0001 C CNN "Distributor"
	1    2450 6450
	1    0    0    1   
$EndComp
$Comp
L vfd1-rescue:PMOS_DUAL_SOT363-RESCUE-vfd1 Q13
U 1 1 58F89DFC
P 3800 6450
F 0 "Q13" H 3700 6050 50  0000 R CNN
F 1 "BSS84AKS" H 4250 6800 50  0000 R CNN
F 2 "TO_SOT_Packages_SMD:SOT-363_SC-70-6" H 3950 6400 50  0001 C CNN
F 3 "" H 3750 6300 50  0000 C CNN
F 4 "1972665" H 3800 6450 60  0001 C CNN "OrderNr"
F 5 "F" H 3800 6450 60  0001 C CNN "Distributor"
	1    3800 6450
	1    0    0    1   
$EndComp
$Comp
L vfd1-rescue:PMOS_DUAL_SOT363-RESCUE-vfd1 Q14
U 1 1 58F89EFC
P 5100 6450
F 0 "Q14" H 5000 6050 50  0000 R CNN
F 1 "BSS84AKS" H 5550 6800 50  0000 R CNN
F 2 "TO_SOT_Packages_SMD:SOT-363_SC-70-6" H 5250 6400 50  0001 C CNN
F 3 "" H 5050 6300 50  0000 C CNN
F 4 "1972665" H 5100 6450 60  0001 C CNN "OrderNr"
F 5 "F" H 5100 6450 60  0001 C CNN "Distributor"
	1    5100 6450
	1    0    0    1   
$EndComp
$Comp
L vfd1-rescue:PMOS_DUAL_SOT363-RESCUE-vfd1 Q5
U 1 1 58F89FFD
P 1100 7300
F 0 "Q5" H 1000 6900 50  0000 R CNN
F 1 "BSS84AKS" H 1550 7650 50  0000 R CNN
F 2 "TO_SOT_Packages_SMD:SOT-363_SC-70-6" H 1250 7250 50  0001 C CNN
F 3 "" H 1050 7150 50  0000 C CNN
F 4 "1972665" H 1100 7300 60  0001 C CNN "OrderNr"
F 5 "F" H 1100 7300 60  0001 C CNN "Distributor"
	1    1100 7300
	1    0    0    1   
$EndComp
$Comp
L vfd1-rescue:PMOS_DUAL_SOT363-RESCUE-vfd1 Q6
U 1 1 58F8A127
P 2450 7300
F 0 "Q6" H 2350 6900 50  0000 R CNN
F 1 "BSS84AKS" H 2900 7650 50  0000 R CNN
F 2 "TO_SOT_Packages_SMD:SOT-363_SC-70-6" H 2600 7250 50  0001 C CNN
F 3 "" H 2400 7150 50  0000 C CNN
F 4 "1972665" H 2450 7300 60  0001 C CNN "OrderNr"
F 5 "F" H 2450 7300 60  0001 C CNN "Distributor"
	1    2450 7300
	1    0    0    1   
$EndComp
$Comp
L vfd1-rescue:PMOS_DUAL_SOT363-RESCUE-vfd1 Q7
U 1 1 58F8A230
P 3800 7300
F 0 "Q7" H 3700 6900 50  0000 R CNN
F 1 "BSS84AKS" H 4250 7650 50  0000 R CNN
F 2 "TO_SOT_Packages_SMD:SOT-363_SC-70-6" H 3950 7250 50  0001 C CNN
F 3 "" H 3750 7150 50  0000 C CNN
F 4 "1972665" H 3800 7300 60  0001 C CNN "OrderNr"
F 5 "F" H 3800 7300 60  0001 C CNN "Distributor"
	1    3800 7300
	1    0    0    1   
$EndComp
$Comp
L vfd1-rescue:PMOS_DUAL_SOT363-RESCUE-vfd1 Q8
U 1 1 58F8A336
P 5100 7300
F 0 "Q8" H 5000 6900 50  0000 R CNN
F 1 "BSS84AKS" H 5550 7650 50  0000 R CNN
F 2 "TO_SOT_Packages_SMD:SOT-363_SC-70-6" H 5250 7250 50  0001 C CNN
F 3 "" H 5050 7150 50  0000 C CNN
F 4 "1972665" H 5100 7300 60  0001 C CNN "OrderNr"
F 5 "F" H 5100 7300 60  0001 C CNN "Distributor"
	1    5100 7300
	1    0    0    1   
$EndComp
$Comp
L vfd1-rescue:PMOS_DUAL_SOT363-RESCUE-vfd1 Q1
U 1 1 58F8A443
P 6450 7350
F 0 "Q1" H 6350 6950 50  0000 R CNN
F 1 "BSS84AKS" H 6900 7700 50  0000 R CNN
F 2 "TO_SOT_Packages_SMD:SOT-363_SC-70-6" H 6600 7300 50  0001 C CNN
F 3 "" H 6400 7200 50  0000 C CNN
F 4 "1972665" H 6450 7350 60  0001 C CNN "OrderNr"
F 5 "F" H 6450 7350 60  0001 C CNN "Distributor"
	1    6450 7350
	1    0    0    1   
$EndComp
$Comp
L vfd1-rescue:PNMOS_DUAL_SOT363-RESCUE-vfd1 Q2
U 1 1 5913B61D
P 4600 1400
F 0 "Q2" H 4650 1850 50  0000 R CNN
F 1 "SI1539CDL" H 4800 1750 50  0000 R CNN
F 2 "TO_SOT_Packages_SMD:SOT-363_SC-70-6" H 4750 1650 50  0001 C CNN
F 3 "" H 4550 1550 50  0000 C CNN
F 4 "2056712" H 4600 1400 60  0001 C CNN "OrderNr"
F 5 "F" H 4600 1400 60  0001 C CNN "Distributor"
	1    4600 1400
	1    0    0    1   
$EndComp
$Comp
L vfd1-rescue:PNMOS_DUAL_SOT363-RESCUE-vfd1 Q3
U 1 1 5913B741
P 7100 1400
F 0 "Q3" H 7200 1850 50  0000 R CNN
F 1 "SI1539CDL" H 7300 1750 50  0000 R CNN
F 2 "TO_SOT_Packages_SMD:SOT-363_SC-70-6" H 7250 1650 50  0001 C CNN
F 3 "" H 7050 1550 50  0000 C CNN
F 4 "2056712" H 7100 1400 60  0001 C CNN "OrderNr"
F 5 "F" H 7100 1400 60  0001 C CNN "Distributor"
	1    7100 1400
	-1   0    0    1   
$EndComp
$Comp
L vfd1-rescue:R R3
U 1 1 5913B88F
P 4300 1050
F 0 "R3" V 4200 1050 50  0000 C CNN
F 1 "1k" V 4300 1050 50  0000 C CNN
F 2 "Resistors_SMD:R_0805" V 4230 1050 50  0001 C CNN
F 3 "" H 4300 1050 50  0000 C CNN
	1    4300 1050
	1    0    0    1   
$EndComp
$Comp
L vfd1-rescue:R R8
U 1 1 5913B9BE
P 7400 1050
F 0 "R8" V 7480 1050 50  0000 C CNN
F 1 "1k" V 7400 1050 50  0000 C CNN
F 2 "Resistors_SMD:R_0805" V 7330 1050 50  0001 C CNN
F 3 "" H 7400 1050 50  0000 C CNN
	1    7400 1050
	1    0    0    1   
$EndComp
$Comp
L power:GND #PWR0111
U 1 1 5913DF2B
P 4900 1900
F 0 "#PWR0111" H 4900 1650 50  0001 C CNN
F 1 "GND" H 4900 1750 50  0000 C CNN
F 2 "" H 4900 1900 50  0000 C CNN
F 3 "" H 4900 1900 50  0000 C CNN
	1    4900 1900
	1    0    0    -1  
$EndComp
$Comp
L power:GND #PWR0112
U 1 1 5913E00F
P 6750 1900
F 0 "#PWR0112" H 6750 1650 50  0001 C CNN
F 1 "GND" H 6750 1750 50  0000 C CNN
F 2 "" H 6750 1900 50  0000 C CNN
F 3 "" H 6750 1900 50  0000 C CNN
	1    6750 1900
	1    0    0    -1  
$EndComp
$Comp
L power:+5V #PWR0113
U 1 1 5913F1F4
P 4900 800
F 0 "#PWR0113" H 4900 650 50  0001 C CNN
F 1 "+5V" H 4900 940 50  0000 C CNN
F 2 "" H 4900 800 50  0000 C CNN
F 3 "" H 4900 800 50  0000 C CNN
	1    4900 800 
	1    0    0    -1  
$EndComp
$Comp
L power:+5V #PWR058
U 1 1 5913F317
P 6750 800
F 0 "#PWR058" H 6750 650 50  0001 C CNN
F 1 "+5V" H 6750 940 50  0000 C CNN
F 2 "" H 6750 800 50  0000 C CNN
F 3 "" H 6750 800 50  0000 C CNN
	1    6750 800 
	1    0    0    -1  
$EndComp
$Comp
L power:GND #PWR059
U 1 1 59140714
P 5850 1050
F 0 "#PWR059" H 5850 800 50  0001 C CNN
F 1 "GND" H 5850 900 50  0000 C CNN
F 2 "" H 5850 1050 50  0000 C CNN
F 3 "" H 5850 1050 50  0000 C CNN
	1    5850 1050
	-1   0    0    1   
$EndComp
$Comp
L vfd1-rescue:Q_NMOS_GSD Q4
U 1 1 59144CD7
P 7500 2050
F 0 "Q4" H 7700 2100 50  0000 L CNN
F 1 "BSS138PW" H 7700 2000 50  0000 L CNN
F 2 "TO_SOT_Packages_SMD:SOT-323_SC-70" H 7700 2150 50  0001 C CNN
F 3 "" H 7500 2050 50  0000 C CNN
F 4 "1907611" H 7500 2050 60  0001 C CNN "OrderNr"
F 5 "F" H 7500 2050 60  0001 C CNN "Distributor"
	1    7500 2050
	-1   0    0    -1  
$EndComp
$Comp
L power:GND #PWR060
U 1 1 5914534F
P 7400 2250
F 0 "#PWR060" H 7400 2000 50  0001 C CNN
F 1 "GND" H 7400 2100 50  0000 C CNN
F 2 "" H 7400 2250 50  0000 C CNN
F 3 "" H 7400 2250 50  0000 C CNN
	1    7400 2250
	1    0    0    -1  
$EndComp
Text Label 7750 2050 0    60   ~ 0
FILDRV
Text Label 4250 1550 2    60   ~ 0
FILDRV
$Comp
L power:+5V #PWR061
U 1 1 597CC523
P 6700 7300
F 0 "#PWR061" H 6700 7150 50  0001 C CNN
F 1 "+5V" H 6700 7440 50  0000 C CNN
F 2 "" H 6700 7300 50  0000 C CNN
F 3 "" H 6700 7300 50  0000 C CNN
	1    6700 7300
	0    1    1    0   
$EndComp
$Comp
L vfd1-rescue:R R10
U 1 1 597D8202
P 1900 2500
F 0 "R10" V 1850 2350 50  0000 C CNN
F 1 "4k7" V 1900 2500 50  0000 C CNN
F 2 "Resistors_SMD:R_0805" V 1830 2500 50  0001 C CNN
F 3 "" H 1900 2500 50  0000 C CNN
	1    1900 2500
	0    1    1    0   
$EndComp
Text Label 9550 1450 0    60   ~ 0
vfd_g9
Text Label 9550 1550 0    60   ~ 0
vfd_g8
Text Label 9550 1650 0    60   ~ 0
vfd_g7
Text Label 9550 1750 0    60   ~ 0
vfd_g6
Text Label 9550 1850 0    60   ~ 0
vfd_g5
Text Label 9550 1950 0    60   ~ 0
vfd_g4
Text Label 9550 2050 0    60   ~ 0
vfd_g3
Text Label 9550 2150 0    60   ~ 0
vfd_g2
Text Label 9550 2250 0    60   ~ 0
vfd_g1
Text Label 9600 2700 0    60   ~ 0
vfd_g9
Text Label 9600 3100 0    60   ~ 0
vfd_g8
Text Label 9600 3200 0    60   ~ 0
vfd_g7
Text Label 9600 3300 0    60   ~ 0
vfd_g6
Text Label 9600 3000 0    60   ~ 0
vfd_g5
Text Label 9600 3400 0    60   ~ 0
vfd_g4
Text Label 9600 2900 0    60   ~ 0
vfd_g3
Text Label 9600 3500 0    60   ~ 0
vfd_g2
Text Label 9600 2800 0    60   ~ 0
vfd_g1
Text Label 8500 2650 3    60   ~ 0
vfd_a
Text Label 8600 2650 3    60   ~ 0
vfd_b
Text Label 8700 2650 3    60   ~ 0
vfd_c
Text Label 8800 2650 3    60   ~ 0
vfd_d
Text Label 8900 2650 3    60   ~ 0
vfd_e
Text Label 9000 2650 3    60   ~ 0
vfd_f
Text Label 9100 2650 3    60   ~ 0
vfd_g
Text Label 9200 2650 3    60   ~ 0
vfd_dp
Text Label 10450 2600 0    60   ~ 0
vfd_a
Text Label 10450 2700 0    60   ~ 0
vfd_f
Text Label 10450 2800 0    60   ~ 0
vfd_b
Text Label 10450 2900 0    60   ~ 0
vfd_g
Text Label 10450 3100 0    60   ~ 0
vfd_e
Text Label 10450 3200 0    60   ~ 0
vfd_c
Text Label 10450 3300 0    60   ~ 0
vfd_d
Text Label 10450 3400 0    60   ~ 0
vfd_dp
Wire Wire Line
	2050 2500 2350 2500
Wire Wire Line
	6200 7500 5950 7500
Wire Wire Line
	6700 7600 6900 7600
Wire Wire Line
	5100 1400 4950 1400
Wire Wire Line
	4950 1350 4850 1350
Wire Wire Line
	4950 1350 4950 1400
Wire Wire Line
	6600 1400 6700 1400
Wire Wire Line
	6700 1350 6850 1350
Wire Wire Line
	6700 1350 6700 1400
Wire Wire Line
	7700 2050 7900 2050
Connection ~ 4300 1550
Connection ~ 7400 1550
Connection ~ 6250 1400
Wire Wire Line
	6250 1400 6250 1150
Connection ~ 5450 1400
Wire Wire Line
	5450 1400 5450 1150
Wire Wire Line
	6200 1400 6250 1400
Connection ~ 5850 1400
Wire Wire Line
	5850 1350 5850 1400
Wire Wire Line
	5800 1400 5850 1400
Wire Wire Line
	5400 1400 5450 1400
Connection ~ 6750 850 
Wire Wire Line
	6750 1150 6850 1150
Wire Wire Line
	6750 800  6750 850 
Wire Wire Line
	7400 850  6750 850 
Wire Wire Line
	7400 900  7400 850 
Connection ~ 4900 850 
Wire Wire Line
	4900 1150 4850 1150
Wire Wire Line
	4900 800  4900 850 
Wire Wire Line
	4300 850  4900 850 
Wire Wire Line
	4300 900  4300 850 
Connection ~ 7400 1250
Wire Wire Line
	7350 1250 7400 1250
Wire Wire Line
	7400 1550 7350 1550
Wire Wire Line
	7400 1200 7400 1250
Connection ~ 4300 1250
Wire Wire Line
	4350 1250 4300 1250
Wire Wire Line
	4100 1550 4300 1550
Wire Wire Line
	4300 1200 4300 1250
Wire Wire Line
	1400 4750 1400 4700
Wire Wire Line
	1150 4750 1200 4750
Wire Wire Line
	1500 3050 1250 3050
Wire Wire Line
	1500 2950 1250 2950
Wire Wire Line
	1500 2950 1500 3050
Wire Wire Line
	1350 2800 1350 2500
Wire Wire Line
	1250 2800 1350 2800
Wire Wire Line
	1250 2650 1700 2650
Connection ~ 5450 4400
Wire Wire Line
	5350 4400 5450 4400
Connection ~ 5450 5050
Wire Wire Line
	5350 4300 5450 4300
Connection ~ 750  850 
Wire Wire Line
	3050 3550 3450 3550
Wire Wire Line
	3600 1500 3600 1700
Connection ~ 3350 850 
Wire Wire Line
	3600 850  3600 1200
Wire Wire Line
	6200 7200 6050 7200
Wire Wire Line
	3450 5250 3100 5250
Wire Wire Line
	3450 5150 3100 5150
Wire Wire Line
	3450 5050 3100 5050
Wire Wire Line
	3450 4950 3100 4950
Wire Wire Line
	3450 4650 3100 4650
Wire Wire Line
	3450 4550 3100 4550
Wire Wire Line
	3450 4300 3100 4300
Wire Wire Line
	3450 4200 3100 4200
Wire Wire Line
	3450 4100 3100 4100
Wire Wire Line
	3450 4000 3100 4000
Wire Wire Line
	3450 3900 3100 3900
Wire Wire Line
	3450 3800 3100 3800
Wire Wire Line
	3450 3650 3100 3650
Wire Wire Line
	3450 3150 3100 3150
Wire Wire Line
	3450 3050 3100 3050
Wire Wire Line
	3450 2950 3100 2950
Wire Wire Line
	2800 4400 2700 4400
Wire Wire Line
	3100 4400 3450 4400
Wire Wire Line
	2350 3250 3450 3250
Wire Wire Line
	3450 3450 3100 3450
Wire Wire Line
	3450 3350 3100 3350
Wire Wire Line
	2250 4850 3450 4850
Wire Wire Line
	2800 4750 3450 4750
Connection ~ 5400 2950
Wire Wire Line
	5350 2950 5400 2950
Connection ~ 5400 3050
Wire Wire Line
	5400 3050 5350 3050
Wire Wire Line
	5400 3250 5350 3250
Wire Wire Line
	5400 2850 5400 2950
Connection ~ 5450 5250
Wire Wire Line
	5450 5250 5350 5250
Connection ~ 5450 5150
Wire Wire Line
	5450 5150 5350 5150
Wire Wire Line
	5450 5050 5350 5050
Wire Wire Line
	5450 4300 5450 4400
Wire Wire Line
	5350 7550 5700 7550
Wire Wire Line
	5350 7250 5700 7250
Wire Wire Line
	4850 7150 4550 7150
Wire Wire Line
	4850 7450 4550 7450
Wire Wire Line
	4050 7550 4400 7550
Wire Wire Line
	4050 7250 4400 7250
Wire Wire Line
	3550 7150 3250 7150
Wire Wire Line
	3550 7450 3250 7450
Wire Wire Line
	2700 7550 3050 7550
Wire Wire Line
	2700 7250 3050 7250
Wire Wire Line
	2200 7150 1900 7150
Wire Wire Line
	2200 7450 1900 7450
Wire Wire Line
	1350 7550 1700 7550
Wire Wire Line
	1350 7250 1700 7250
Wire Wire Line
	850  7150 550  7150
Wire Wire Line
	850  7450 550  7450
Wire Wire Line
	5350 6700 5700 6700
Wire Wire Line
	5350 6400 5700 6400
Wire Wire Line
	4850 6300 4550 6300
Wire Wire Line
	4850 6600 4550 6600
Wire Wire Line
	4050 6700 4400 6700
Wire Wire Line
	4050 6400 4400 6400
Wire Wire Line
	3550 6300 3250 6300
Wire Wire Line
	3550 6600 3250 6600
Wire Wire Line
	2700 6700 3050 6700
Wire Wire Line
	2700 6400 3050 6400
Wire Wire Line
	2200 6300 1900 6300
Wire Wire Line
	2200 6600 1900 6600
Wire Wire Line
	1350 6700 1700 6700
Wire Wire Line
	1350 6400 1700 6400
Wire Wire Line
	850  6300 550  6300
Wire Wire Line
	850  6600 550  6600
Wire Wire Line
	2400 1250 2400 1300
Wire Wire Line
	750  2100 750  1550
Wire Wire Line
	1650 2050 1650 2100
Wire Wire Line
	3350 1650 3350 1700
Wire Wire Line
	3350 850  3350 950 
Wire Wire Line
	3100 850  3350 850 
Connection ~ 3350 1300
Wire Wire Line
	3350 1250 3350 1300
Wire Wire Line
	2800 1300 3350 1300
Wire Wire Line
	2800 1600 2800 1300
Wire Wire Line
	2200 1600 2800 1600
Connection ~ 1000 850 
Wire Wire Line
	750  1250 750  850 
Connection ~ 1300 850 
Wire Wire Line
	1000 1600 1100 1600
Wire Wire Line
	1000 850  1000 1600
Wire Wire Line
	750  850  1000 850 
Wire Wire Line
	1300 1000 1300 850 
Wire Wire Line
	1400 1000 1300 1000
Wire Wire Line
	1400 1100 1400 1000
Connection ~ 2000 850 
Wire Wire Line
	2000 1000 2000 850 
Wire Wire Line
	1850 1000 2000 1000
Wire Wire Line
	1850 1100 1850 1000
Connection ~ 2400 850 
Wire Wire Line
	2400 950  2400 850 
Wire Wire Line
	2350 850  2400 850 
Wire Wire Line
	1950 850  2000 850 
Wire Wire Line
	2250 4950 2800 4950
Connection ~ 1850 4950
Wire Wire Line
	1850 5000 1850 4950
Connection ~ 1650 4850
Wire Wire Line
	1650 4800 1650 4850
Wire Wire Line
	1150 4850 1650 4850
Wire Wire Line
	1150 4950 1850 4950
Wire Wire Line
	9900 5200 10200 5200
Connection ~ 8400 1600
Wire Wire Line
	8450 1600 8400 1600
Wire Wire Line
	8400 1700 8450 1700
Wire Wire Line
	8400 1500 8400 1600
Wire Wire Line
	8450 1500 8400 1500
Wire Wire Line
	2550 3550 2750 3550
Wire Wire Line
	9400 5500 9100 5500
Wire Wire Line
	9400 5400 9100 5400
Wire Wire Line
	9400 5300 9100 5300
Wire Wire Line
	9400 5200 9100 5200
Wire Wire Line
	9400 5000 9100 5000
Wire Wire Line
	9100 4900 9400 4900
Wire Wire Line
	9400 4800 9100 4800
Wire Wire Line
	9400 4700 9100 4700
Wire Wire Line
	9400 5600 9150 5600
Wire Wire Line
	9900 4700 10200 4700
Wire Wire Line
	9900 4800 10200 4800
Wire Wire Line
	9900 4900 10200 4900
Wire Wire Line
	9900 5000 10200 5000
Wire Wire Line
	9900 5100 10200 5100
Wire Wire Line
	9900 5300 10200 5300
Wire Wire Line
	9900 5400 10200 5400
Wire Wire Line
	9900 5500 10200 5500
Wire Wire Line
	9900 5600 10200 5600
Wire Wire Line
	10400 2900 10750 2900
Wire Wire Line
	10400 2800 10750 2800
Wire Wire Line
	10400 2700 10750 2700
Wire Wire Line
	10400 2600 10750 2600
Wire Wire Line
	10400 3100 10750 3100
Wire Wire Line
	10400 3200 10750 3200
Wire Wire Line
	10400 3300 10750 3300
Wire Wire Line
	9200 2650 9200 3150
Wire Wire Line
	10400 3400 10750 3400
Wire Wire Line
	8700 850  8700 1100
Wire Wire Line
	10400 3500 10750 3500
Wire Wire Line
	9550 2150 10150 2150
Wire Wire Line
	9900 3500 9500 3500
Wire Wire Line
	9550 1950 10150 1950
Wire Wire Line
	9500 3400 9900 3400
Wire Wire Line
	9550 1750 10150 1750
Wire Wire Line
	9900 3300 9500 3300
Wire Wire Line
	9550 1650 10150 1650
Wire Wire Line
	9500 3200 9900 3200
Wire Wire Line
	9550 1550 10150 1550
Wire Wire Line
	9900 3100 9500 3100
Wire Wire Line
	9550 1850 10150 1850
Wire Wire Line
	9500 3000 9900 3000
Wire Wire Line
	9550 2050 10150 2050
Wire Wire Line
	9500 2900 9900 2900
Wire Wire Line
	9550 2250 10150 2250
Wire Wire Line
	9900 2800 9500 2800
Wire Wire Line
	9550 1450 10150 1450
Wire Wire Line
	9500 2700 9900 2700
Wire Wire Line
	9500 2600 9900 2600
Wire Wire Line
	8950 850  8950 1100
Wire Wire Line
	1350 2500 1750 2500
Wire Wire Line
	2150 2650 2050 2650
Connection ~ 1700 2650
Wire Wire Line
	1700 2650 1700 2850
Wire Wire Line
	1700 3150 1700 3200
Wire Wire Line
	7400 5550 7150 5550
Wire Wire Line
	7900 5450 8150 5450
Wire Wire Line
	7400 5450 7150 5450
Wire Wire Line
	7400 5350 7150 5350
Wire Wire Line
	8500 2650 8500 3150
Wire Wire Line
	8600 2650 8600 3150
Wire Wire Line
	8700 2650 8700 3150
Wire Wire Line
	8800 2650 8800 3150
Wire Wire Line
	8900 2650 8900 3150
Wire Wire Line
	9000 2650 9000 3150
Wire Wire Line
	9100 2650 9100 3150
Text Label 9900 2600 2    60   ~ 0
vfd_fil-
Text Label 8950 1100 1    60   ~ 0
vfd_fil-
Text Label 8700 1100 1    60   ~ 0
vfd_fil+
Text Label 10450 3500 0    60   ~ 0
vfd_fil+
Wire Notes Line
	8050 650  11000 650 
Wire Notes Line
	11000 650  11000 3850
Wire Notes Line
	11000 3850 8050 3850
Wire Notes Line
	8050 3850 8050 650 
Text Notes 10150 750  0    60   ~ 0
VFD-Tube-Modul\n
Wire Wire Line
	2800 4950 2800 4750
Wire Wire Line
	2350 2500 2350 3250
Connection ~ 1500 3050
Wire Wire Line
	2550 3550 2550 3750
Wire Wire Line
	2550 3750 2250 3750
Wire Wire Line
	6450 3000 6450 3200
Wire Wire Line
	6250 3000 6250 3200
Wire Wire Line
	6050 3000 6050 3200
Wire Wire Line
	4300 1550 4350 1550
Wire Wire Line
	7400 1550 7400 1850
Wire Wire Line
	6250 1400 6300 1400
Wire Wire Line
	5450 1400 5500 1400
Wire Wire Line
	5850 1400 5850 1450
Wire Wire Line
	5850 1400 5900 1400
Wire Wire Line
	6750 850  6750 1150
Wire Wire Line
	4900 850  4900 1150
Wire Wire Line
	7400 1250 7400 1550
Wire Wire Line
	4300 1250 4300 1550
Wire Wire Line
	5450 4400 5450 5050
Wire Wire Line
	5450 5050 5450 5150
Wire Wire Line
	3350 850  3600 850 
Wire Wire Line
	5400 2950 5400 3050
Wire Wire Line
	5400 3050 5400 3250
Wire Wire Line
	5450 5250 5450 5300
Wire Wire Line
	5450 5150 5450 5250
Wire Wire Line
	3350 1300 3350 1350
Wire Wire Line
	1000 850  1300 850 
Wire Wire Line
	1300 850  1350 850 
Wire Wire Line
	2000 850  2050 850 
Wire Wire Line
	2400 850  2500 850 
Wire Wire Line
	1850 4950 1950 4950
Wire Wire Line
	1650 4850 1650 5000
Wire Wire Line
	1650 4850 1950 4850
Wire Wire Line
	8400 1600 8400 1700
Wire Wire Line
	1700 2650 1750 2650
Wire Wire Line
	1500 3050 1500 3200
Wire Wire Line
	6850 1450 6700 1450
Wire Wire Line
	6700 1450 6700 1400
Connection ~ 6700 1400
Wire Wire Line
	6750 1900 6750 1650
Wire Wire Line
	6750 1650 6850 1650
Wire Wire Line
	4850 1450 4950 1450
Wire Wire Line
	4950 1450 4950 1400
Connection ~ 4950 1400
Wire Wire Line
	4850 1650 4900 1650
Wire Wire Line
	4900 1650 4900 1900
$EndSCHEMATC
